{
  "data": [
    {
      "questionId": 54,
      "questionStatus": "QUESTION_EXIST",
      "title": "whwjwjwjwnwnwnwnwnnwnwh",
      "body": " hwhwhwhwnwhwnhwnwnwnwnwnwnwnwnnwn",
      "vote": 0,
      "view": 24,
      "user": {
        "displayName": "hongdahee",
        "email": "test@gamil.com",
        "image": "https://mblogthumb-phinf.pstatic.net/MjAyMDA2MTBfMTY1/MDAxNTkxNzQ2ODcyOTI2.Yw5WjjU3IuItPtqbegrIBJr3TSDMd_OPhQ2Nw-0-0ksg.8WgVjtB0fy0RCv0XhhUOOWt90Kz_394Zzb6xPjG6I8gg.PNG.lamute/user.png?type=w800",
        "userStatus": "USER_EXIST"
      },
      "questionTags": [
        {
          "tagName": "java"
        },
        {
          "tagName": "react"
        },
        {
          "tagName": "html"
        }
      ],
      "answers": {
        "data": [
          {
            "answerId": 17,
            "body": "Since React 18 I have some errors when rendering the application and can't nest any elements as it seems. For example, I have the following code in my application:\n\n```javascript\nreturn (\n        <Card>\n            <div className={`flex flex-row justify-content-center align-items-center`}>\n                {props.icon}\n                <h2>{props.text}</h2>\n            </div>\n            <div className={\"flex justify-content-center align-items-center\"}>\n                <Button onClick={() => props.onButtonClick()} className={\"w-2\"} label={props.buttonText}/>\n            </div>\n        </Card>\n\n\n    );\n```\n \nThis code worked fine up to React 18, now from 18 version I get the following error: enter image description here\n\nLikewise, element arrays can no longer be rendered, again, the following code worked fine in React17:\n\n```javascript\n  <DataTable metaKeySelection={false} selectionMode={\"single\"} onSelectionChange={e => {\n                                setSelection(e.value)\n                            }} selection={selection} stripedRows={true} showGridlines={true} size={\"small\"}\n                                       value={artifacts}>\n                                {colModels}\n                            </DataTable>\n```\n\nAnd now since React18 the following problem occurs: enter image description here\n\nIt seems to me that with v18 React expects React Nodes everywhere and JSX as such is no longer accepted. These errors disappear as soon as I enclose said elements with a React fragment, is this really the only way to solve this problem?\n\nThanks in advance!",
            "vote": 2,
            "author": {
              "displayName": "sangbin",
              "email": "mosangbin@gmail.com",
              "image": "https://mblogthumb-phinf.pstatic.net/MjAyMDA2MTBfMTY1/MDAxNTkxNzQ2ODcyOTI2.Yw5WjjU3IuItPtqbegrIBJr3TSDMd_OPhQ2Nw-0-0ksg.8WgVjtB0fy0RCv0XhhUOOWt90Kz_394Zzb6xPjG6I8gg.PNG.lamute/user.png?type=w800"
            },
            "isChecked": true,
            "createdAt": "2022-10-11T01:39:34",
            "updatedAt": "2022-10-11T01:39:38"
          },
          {
            "author": {
              "displayName": "MINDA01",
              "image": "https://mblogthumb-phinf.pstatic.net/MjAyMDA2MTBfMTY1/MDAxNTkxNzQ2ODcyOTI2.Yw5WjjU3IuItPtqbegrIBJr3TSDMd_OPhQ2Nw-0-0ksg.8WgVjtB0fy0RCv0XhhUOOWt90Kz_394Zzb6xPjG6I8gg.PNG.lamute/user.png?type=w800"
            },
            "body": "** 두번째 테스트입니다**\n| a |b  |\n| --- | --- |\n|  1| 2 |\n> 인용문",
            "vote": 3,
            "isChecked": false,
            "createdAt": "2022-11-01T10:37:23.156Z",
            "updatedAt": "2022-11-01T10:37:23.156Z"
          },
          {
            "author": {
              "displayName": "Heeyoon",
              "image": "https://mblogthumb-phinf.pstatic.net/MjAyMDA2MTBfMTY1/MDAxNTkxNzQ2ODcyOTI2.Yw5WjjU3IuItPtqbegrIBJr3TSDMd_OPhQ2Nw-0-0ksg.8WgVjtB0fy0RCv0XhhUOOWt90Kz_394Zzb6xPjG6I8gg.PNG.lamute/user.png?type=w800"
            },
            "body": "# 세번째 테스트입니다\n* [x] 할일1\n* [ ] 할일2\n\n`javascript`",
            "vote": 4,
            "isChecked": false,
            "createdAt": "2022-11-01T10:45:05.141Z",
            "updatedAt": "2022-11-01T10:45:05.141Z"
          },
          {
            "author": {
              "displayName": "Helperbot5",
              "image": "https://mblogthumb-phinf.pstatic.net/MjAyMDA2MTBfMTY1/MDAxNTkxNzQ2ODcyOTI2.Yw5WjjU3IuItPtqbegrIBJr3TSDMd_OPhQ2Nw-0-0ksg.8WgVjtB0fy0RCv0XhhUOOWt90Kz_394Zzb6xPjG6I8gg.PNG.lamute/user.png?type=w800"
            },
            "body": "네번째 테스트입니다! \n```\n코드블럭\n```",
            "isChecked": false,
            "vote": 5,
            "createdAt": "2022-11-01T10:49:19.415Z",
            "updatedAt": "2022-11-01T10:49:19.415Z"
          }
        ]
      },
      "createdAt": "2022-10-25T17:11:48",
      "updatedAt": "2022-10-25T17:11:48"
    },
    {
      "questionId": 51,
      "questionStatus": "QUESTION_EXIST",
      "title": "ㄴㄹㄴㅇㄹㄴㅇㄹㄴㅇㄹㄴㅇㄹㄴㅇㄹㄴㅇㄹ",
      "body": " ㄴㅇㄹㄴㅇㄹㄴㅇㄹㅁㄴㅇㄹㅁㅁㄴㅇㄹㅁㄴㅇㄹㅁㅇㄹㅁㄴㅇㄹㅁㄹㄴㄹㄴㄹㄴ",
      "vote": 0,
      "view": 85,
      "user": {
        "displayName": "151214",
        "email": "test@gamil.com",
        "image": "https://mblogthumb-phinf.pstatic.net/MjAyMDA2MTBfMTY1/MDAxNTkxNzQ2ODcyOTI2.Yw5WjjU3IuItPtqbegrIBJr3TSDMd_OPhQ2Nw-0-0ksg.8WgVjtB0fy0RCv0XhhUOOWt90Kz_394Zzb6xPjG6I8gg.PNG.lamute/user.png?type=w800",
        "userStatus": "USER_EXIST"
      },
      "questionTags": [
        {
          "tagName": "java"
        },
        {
          "tagName": "did"
        },
        {
          "tagName": "sisis"
        },
        {
          "tagName": "sks"
        }
      ],
      "createdAt": "2022-10-25T13:15:48",
      "updatedAt": "2022-10-25T17:11:20"
    },
    {
      "questionId": 50,
      "questionStatus": "QUESTION_EXIST",
      "title": "dasdsadsadsadsadsadas",
      "body": " dsadsadsad dsadsadsad dsadsadsad dsadsadsad dsadsadsad",
      "vote": 2,
      "view": 39,
      "user": {
        "displayName": "jsdksad",
        "email": "hsj2216@naver.com",
        "image": "https://mblogthumb-phinf.pstatic.net/MjAyMDA2MTBfMTY1/MDAxNTkxNzQ2ODcyOTI2.Yw5WjjU3IuItPtqbegrIBJr3TSDMd_OPhQ2Nw-0-0ksg.8WgVjtB0fy0RCv0XhhUOOWt90Kz_394Zzb6xPjG6I8gg.PNG.lamute/user.png?type=w800",
        "userStatus": "USER_EXIST"
      },
      "questionTags": [
        {
          "tagName": "#javascript"
        },
        {
          "tagName": "#react"
        },
        {
          "tagName": "#html"
        },
        {
          "tagName": "#csss"
        },
        {
          "tagName": "#sql"
        }
      ],
      "createdAt": "2022-10-25T08:55:42",
      "updatedAt": "2022-10-25T08:55:42"
    },
    {
      "questionId": 49,
      "questionStatus": "QUESTION_EXIST",
      "title": "sadsdsadsdsadsd",
      "body": " sadsdsadsdsadsdsadsdsadsdsadsdxzczxczxzcxzczxcxzczxcxzcxzczxczcxzczxc",
      "vote": 0,
      "view": 37,
      "user": {
        "displayName": "151214",
        "email": "test@gamil.com",
        "image": "https://mblogthumb-phinf.pstatic.net/MjAyMDA2MTBfMTY1/MDAxNTkxNzQ2ODcyOTI2.Yw5WjjU3IuItPtqbegrIBJr3TSDMd_OPhQ2Nw-0-0ksg.8WgVjtB0fy0RCv0XhhUOOWt90Kz_394Zzb6xPjG6I8gg.PNG.lamute/user.png?type=w800",
        "userStatus": "USER_EXIST"
      },
      "questionTags": [
        {
          "tagName": "java"
        }
      ],
      "createdAt": "2022-10-25T07:32:07",
      "updatedAt": "2022-10-25T08:39:12"
    },
    {
      "questionId": 48,
      "questionStatus": "QUESTION_EXIST",
      "title": "sdsadsadsdasdasdsa",
      "body": " sadasdasdasdasdasdasdasdasdasdas",
      "vote": 0,
      "view": 10,
      "user": {
        "displayName": "151214",
        "email": "test@gamil.com",
        "image": "https://mblogthumb-phinf.pstatic.net/MjAyMDA2MTBfMTY1/MDAxNTkxNzQ2ODcyOTI2.Yw5WjjU3IuItPtqbegrIBJr3TSDMd_OPhQ2Nw-0-0ksg.8WgVjtB0fy0RCv0XhhUOOWt90Kz_394Zzb6xPjG6I8gg.PNG.lamute/user.png?type=w800",
        "userStatus": "USER_EXIST"
      },
      "questionTags": [
        {
          "tagName": "java"
        }
      ],
      "createdAt": "2022-10-25T07:31:40",
      "updatedAt": "2022-10-25T07:31:40"
    },
    {
      "questionId": 47,
      "questionStatus": "QUESTION_EXIST",
      "title": "ㅁㅇㄴㄹㅁㄴㅇㄹㅁㄴㅇㄹㅁㄴㅇㄹㅁㄴㅇㄹㅁㄴㅇ",
      "body": " ㄹㅁㄴㅇㅁㄴㅇㄹㅁㄴㅇㄹㅁㄴㅇㄹㅁㄴㅇㄹㅁㄴㅇㄹㅁㄴㅇㄹㄴㅁㅇㄹㅁㄴㅇㄹ",
      "vote": 0,
      "view": 18,
      "user": {
        "displayName": "151214",
        "email": "test@gamil.com",
        "image": "https://mblogthumb-phinf.pstatic.net/MjAyMDA2MTBfMTY1/MDAxNTkxNzQ2ODcyOTI2.Yw5WjjU3IuItPtqbegrIBJr3TSDMd_OPhQ2Nw-0-0ksg.8WgVjtB0fy0RCv0XhhUOOWt90Kz_394Zzb6xPjG6I8gg.PNG.lamute/user.png?type=w800",
        "userStatus": "USER_EXIST"
      },
      "questionTags": [
        {
          "tagName": "javascript"
        }
      ],
      "createdAt": "2022-10-25T07:29:17",
      "updatedAt": "2022-10-25T07:29:16"
    },
    {
      "questionId": 46,
      "questionStatus": "QUESTION_EXIST",
      "title": "dddddddaasssdasdd",
      "body": " sdsadasdasdasdasdasdsadasdsadasda",
      "vote": 0,
      "view": 22,
      "user": {
        "displayName": "151214",
        "email": "test@gamil.com",
        "image": "https://mblogthumb-phinf.pstatic.net/MjAyMDA2MTBfMTY1/MDAxNTkxNzQ2ODcyOTI2.Yw5WjjU3IuItPtqbegrIBJr3TSDMd_OPhQ2Nw-0-0ksg.8WgVjtB0fy0RCv0XhhUOOWt90Kz_394Zzb6xPjG6I8gg.PNG.lamute/user.png?type=w800",
        "userStatus": "USER_EXIST"
      },
      "questionTags": [
        {
          "tagName": "java"
        }
      ],
      "createdAt": "2022-10-25T07:14:13",
      "updatedAt": "2022-10-25T07:14:13"
    },
    {
      "questionId": 45,
      "questionStatus": "QUESTION_EXIST",
      "title": "안녕하세요 힘들어요 힘들어 괜찮으신가요",
      "body": " 네네네네네네\n네네네네\n네네네\n네넨네네네\nㄴ네네네네네네네네",
      "vote": -1,
      "view": 43,
      "user": {
        "displayName": "test",
        "email": "test@gmail.com",
        "image": "https://mblogthumb-phinf.pstatic.net/MjAyMDA2MTBfMTY1/MDAxNTkxNzQ2ODcyOTI2.Yw5WjjU3IuItPtqbegrIBJr3TSDMd_OPhQ2Nw-0-0ksg.8WgVjtB0fy0RCv0XhhUOOWt90Kz_394Zzb6xPjG6I8gg.PNG.lamute/user.png?type=w800",
        "userStatus": "USER_EXIST"
      },
      "questionTags": [
        {
          "tagName": "spring"
        }
      ],
      "createdAt": "2022-10-25T06:05:29",
      "updatedAt": "2022-10-25T06:05:29"
    },
    {
      "questionId": 44,
      "questionStatus": "QUESTION_EXIST",
      "title": "what the hell project!!",
      "body": " hell gate was opened\n\nwwwwwwwww",
      "vote": -1,
      "view": 15,
      "user": {
        "displayName": "Hell",
        "email": "aa@aa.com",
        "image": "https://mblogthumb-phinf.pstatic.net/MjAyMDA2MTBfMTY1/MDAxNTkxNzQ2ODcyOTI2.Yw5WjjU3IuItPtqbegrIBJr3TSDMd_OPhQ2Nw-0-0ksg.8WgVjtB0fy0RCv0XhhUOOWt90Kz_394Zzb6xPjG6I8gg.PNG.lamute/user.png?type=w800",
        "userStatus": "USER_EXIST"
      },
      "questionTags": [
        {
          "tagName": "spring"
        }
      ],
      "createdAt": "2022-10-25T06:02:32",
      "updatedAt": "2022-10-25T06:02:32"
    },
    {
      "questionId": 43,
      "questionStatus": "QUESTION_EXIST",
      "title": "안녕하세요 반갑습니다 식사는하셨나요",
      "body": "**안녕하세요 바디에요 반갑습니다**\n가을이 찾아왔네요 감기조심하세요\n\n```\n저는 코드랍니다 잘부탁드려요\n```",
      "vote": 5,
      "view": 136,
      "user": {
        "displayName": "test",
        "email": "test@gmail.com",
        "image": "https://mblogthumb-phinf.pstatic.net/MjAyMDA2MTBfMTY1/MDAxNTkxNzQ2ODcyOTI2.Yw5WjjU3IuItPtqbegrIBJr3TSDMd_OPhQ2Nw-0-0ksg.8WgVjtB0fy0RCv0XhhUOOWt90Kz_394Zzb6xPjG6I8gg.PNG.lamute/user.png?type=w800",
        "userStatus": "USER_EXIST"
      },
      "questionTags": [
        {
          "tagName": "java"
        },
        {
          "tagName": "javascript"
        },
        {
          "tagName": "winteriscoming"
        }
      ],
      "createdAt": "2022-10-25T02:59:09",
      "updatedAt": "2022-10-25T02:59:09"
    },
    {
      "questionId": 42,
      "questionStatus": "QUESTION_EXIST",
      "title": "안녕하세요? 정말 잘 만드신것 같아요!",
      "body": "안녕하세요? 정말 잘 만드신것 같아요! 최고입니다....",
      "vote": 3,
      "view": 65,
      "user": {
        "displayName": "ds",
        "email": "test2@naver.com",
        "image": "https://mblogthumb-phinf.pstatic.net/MjAyMDA2MTBfMTY1/MDAxNTkxNzQ2ODcyOTI2.Yw5WjjU3IuItPtqbegrIBJr3TSDMd_OPhQ2Nw-0-0ksg.8WgVjtB0fy0RCv0XhhUOOWt90Kz_394Zzb6xPjG6I8gg.PNG.lamute/user.png?type=w800",
        "userStatus": "USER_EXIST"
      },
      "questionTags": [
        {
          "tagName": "javascript"
        }
      ],
      "createdAt": "2022-10-25T02:17:38",
      "updatedAt": "2022-10-25T02:17:38"
    },
    {
      "questionId": 41,
      "questionStatus": "QUESTION_EXIST",
      "title": "adffsadfasdfasdfas",
      "body": " asdfasdfsafsddsafdf adsf asdfds fasdfsadf safas dfsadf **sadf**",
      "vote": 2,
      "view": 28,
      "user": {
        "displayName": "jeje",
        "email": "choije401@gmail.com",
        "image": "https://mblogthumb-phinf.pstatic.net/MjAyMDA2MTBfMTY1/MDAxNTkxNzQ2ODcyOTI2.Yw5WjjU3IuItPtqbegrIBJr3TSDMd_OPhQ2Nw-0-0ksg.8WgVjtB0fy0RCv0XhhUOOWt90Kz_394Zzb6xPjG6I8gg.PNG.lamute/user.png?type=w800",
        "userStatus": "USER_EXIST"
      },
      "questionTags": [
        {
          "tagName": "js"
        }
      ],
      "createdAt": "2022-10-25T01:24:39",
      "updatedAt": "2022-10-25T01:24:39"
    },
    {
      "questionId": 40,
      "questionStatus": "QUESTION_EXIST",
      "title": "wowwwwwwwwwwwwww",
      "body": "아아아아아아아아ㅇ아아ㅏ아아아ㅇ아아아아아아아아아\n아아아ㅇ아아ㅏㅇ",
      "vote": -1,
      "view": 34,
      "user": {
        "displayName": "jeje",
        "email": "choije401@gmail.com",
        "image": "https://mblogthumb-phinf.pstatic.net/MjAyMDA2MTBfMTY1/MDAxNTkxNzQ2ODcyOTI2.Yw5WjjU3IuItPtqbegrIBJr3TSDMd_OPhQ2Nw-0-0ksg.8WgVjtB0fy0RCv0XhhUOOWt90Kz_394Zzb6xPjG6I8gg.PNG.lamute/user.png?type=w800",
        "userStatus": "USER_EXIST"
      },
      "questionTags": [
        {
          "tagName": "js"
        }
      ],
      "createdAt": "2022-10-24T14:10:46",
      "updatedAt": "2022-10-24T14:10:46"
    },
    {
      "questionId": 39,
      "questionStatus": "QUESTION_EXIST",
      "title": "아ㅇㅇㅇㅇㅇㅇㅇㅇㅇㅇㅇㅇㅇㅇㅇ니 어케했지?!",
      "body": " 와저정말\n대난\nㅇ\nㅇ\nㅇ\nㅇ\nㅇ\n\nㅇㅇ\nㅇ\nㅇ\nㅇ\nㅇ\nㅇ\nㅇ\nㅇ",
      "vote": 2,
      "view": 103,
      "user": {
        "displayName": "SEB_FE_40_박여울",
        "email": "qyoong3579@gmail.com",
        "image": "https://mblogthumb-phinf.pstatic.net/MjAyMDA2MTBfMTY1/MDAxNTkxNzQ2ODcyOTI2.Yw5WjjU3IuItPtqbegrIBJr3TSDMd_OPhQ2Nw-0-0ksg.8WgVjtB0fy0RCv0XhhUOOWt90Kz_394Zzb6xPjG6I8gg.PNG.lamute/user.png?type=w800",
        "userStatus": "USER_EXIST"
      },
      "questionTags": [
        {
          "tagName": "ㅇ"
        }
      ],
      "createdAt": "2022-10-24T09:00:13",
      "updatedAt": "2022-10-24T09:00:13"
    },
    {
      "questionId": 38,
      "questionStatus": "QUESTION_EXIST",
      "title": "asdasdasdasdaasdsd",
      "body": "sadasdadaddadasdasdasdasdasdasdasasdas",
      "vote": 1,
      "view": 144,
      "user": {
        "displayName": "151214",
        "email": "test@gamil.com",
        "image": "https://mblogthumb-phinf.pstatic.net/MjAyMDA2MTBfMTY1/MDAxNTkxNzQ2ODcyOTI2.Yw5WjjU3IuItPtqbegrIBJr3TSDMd_OPhQ2Nw-0-0ksg.8WgVjtB0fy0RCv0XhhUOOWt90Kz_394Zzb6xPjG6I8gg.PNG.lamute/user.png?type=w800",
        "userStatus": "USER_EXIST"
      },
      "questionTags": [
        {
          "tagName": "php"
        }
      ],
      "createdAt": "2022-10-24T06:54:11",
      "updatedAt": "2022-10-24T06:54:11"
    }
  ],
  "pageInfo": {
    "page": 1,
    "size": 15,
    "totalElements": 48,
    "totalPages": 4
  }
}
